<!-- Generated by IcoMoon.io -->
<svg version="1.1" xmlns="http://www.w3.org/2000/svg" width="1024" height="1024" viewBox="0 0 1024 1024">
<title></title>
<g id="icomoon-ignore">
</g>
<path fill="#000" d="M395.733 89.6l-227.2 202.667v535.467h349.867c-1.067-1.067-1.067-2.133 0-3.2 5.333-17.067 2.133-34.133 1.067-51.2h-296.533v-434.133h227.2v-194.133h227.2v498.133c1.067 0 1.067-1.067 2.133-1.067h3.2c1.067 0 2.133 0 3.2 1.067 14.933-2.133 29.867-1.067 44.8-1.067 1.067 0 1.067 0 1.067 0v-552.533h-336zM395.733 283.733h-114.133l114.133-115.2v115.2z"></path>
<path fill="#000" d="M622.933 430.933h-345.6v37.333h345.6v-37.333z"></path>
<path fill="#000" d="M622.933 357.333h-118.4v37.333h118.4v-37.333z"></path>
<path fill="#000" d="M622.933 504.533h-345.6v37.333h345.6v-37.333z"></path>
<path fill="#000" d="M622.933 579.2h-345.6v36.267h345.6v-36.267z"></path>
<path fill="#000" d="M622.933 652.8h-345.6v37.333h345.6v-37.333z"></path>
<path fill="#000" d="M692.267 857.6c-43.733 0-80-36.267-80-80 0-44.8 36.267-80 80-80s80 36.267 80 80c0 43.733-36.267 80-80 80v0zM871.467 726.4c-4.267-14.933-9.6-28.8-17.067-41.6l17.067-50.133-37.333-38.4-50.133 17.067c-12.8-7.467-26.667-13.867-41.6-17.067l-22.4-46.933h-53.333l-23.467 46.933c-14.933 4.267-28.8 9.6-41.6 17.067l-50.133-17.067-37.333 38.4 17.067 50.133c-7.467 13.867-12.8 27.733-17.067 42.667l-45.867 22.4v53.333l45.867 23.467c4.267 14.933 9.6 28.8 17.067 41.6l-17.067 50.133 37.333 38.4 50.133-17.067c12.8 7.467 26.667 13.867 41.6 17.067l23.467 46.933h53.333l23.467-46.933c14.933-4.267 28.8-9.6 41.6-17.067l50.133 17.067 37.333-38.4-17.067-50.133c7.467-13.867 12.8-27.733 17.067-42.667l45.867-23.467v-53.333l-46.933-22.4z"></path>
</svg>
